{
  "hlsl.preprocessorDefinitions": {
    "MY_PREPROCESSOR_DEFINE_1": "Foo",
    "MY_PREPROCESSOR_DEFINE_2": 1
  },
  "hlsl.additionalIncludeDirectories": [
    "custom",
    "custom_objects/common",
    "recreated"
  ]
}